%YAML 1.1
%TAG !u! tag:unity3d.com,2011:
--- !u!1045 &1
EditorBuildSettings:
  m_ObjectHideFlags: 0
  serializedVersion: 2
  m_Scenes:
  - enabled: 1
    path: Assets/Scenes/SampleScene.unity
    guid: 9fc0d4010bbf28b4594072e72b8655ab
  m_configObjects:
    Unity.XR.Oculus.Settings: {fileID: 11400000, guid: e5aa69fd53c89a74e9ad43ed778741cb, type: 2}
    com.unity.xr.management.loader_settings: {fileID: 11400000, guid: 73892d0fc65966b4b8b31f05f133e2ec, type: 2}
